{
    "name": "Pociesz",
    "short": "A short description of the cog.",
    "description": "A long description of the cog.",
    "end_user_data_statement": "This cog does not persistently store any data or metadata about users.",
    "install_msg": "Poprawię Ci humor ;*",
    "author": [
        "Author 1",
        "Author 2"
    ],
    "required_cogs": {},
    "requirements": [],
    "tags": [
        "tag1",
        "tag2",
        "tag3"
    ],
    "min_bot_version": "3.3.10",
    "hidden": false,
    "disabled": false,
    "type": "COG"
}
